{
    "modules": {
        "index": {
            "welcome_msg": {
                "id": 1,
                "enabled": 1,
                "file": "welcome",
                "position": 0
            },
            "home": {
                "id": 4,
                "enabled": 1,
                "file": "home",
                "position": 1
            },
            "hello": {
                "id": 4,
                "enabled": 1,
                "file": "hello",
                "position": 3
            }
        }
    },
    "menu": {
        "index": {
            "title": "{{ langGlobal.index }}",
            "href": "{{ URL }}index",
            "show": "normal"
        },
        "about": {
            "title": "{{ langGlobal.about }}",
            "href": "{{ URL }}index/about/CMS",
            "show": "normal"
        }
    }
}